module spider

go 1.14

require (
	github.com/PuerkitoBio/goquery v1.5.1
	github.com/antchfx/htmlquery v1.2.3 // indirect
	github.com/antchfx/xmlquery v1.2.4 // indirect
	github.com/elastic/go-elasticsearch v0.0.0
	github.com/elastic/go-elasticsearch/v7 v7.8.0
	github.com/gobwas/glob v0.2.3 // indirect
	github.com/gocolly/colly v1.2.0
	github.com/gomodule/redigo v1.8.2
	github.com/kennygrant/sanitize v1.2.4 // indirect
	github.com/saintfish/chardet v0.0.0-20120816061221-3af4cd4741ca // indirect
	github.com/temoto/robotstxt v1.1.1 // indirect
	google.golang.org/appengine v1.6.6 // indirect
	google.golang.org/grpc/test/tools v0.0.0-20200716233830-6dc7938fe875 // indirect
)
